{
  "type": "FeatureCollection",
  "features": [
    {
      "type": "Feature",
      "properties": {},
      "geometry": {
        "type": "LineString",
        "coordinates": [
          [ 106.820496,-6.545937 ],
		  [ 106.820465,-6.54616 ],
		  [ 106.819944,-6.546184 ],
		  [ 106.819766,-6.545977 ],
		  [ 106.820358,-6.545623 ],
		  [ 106.820361,-6.545475 ],
		  [ 106.820253,-6.545476 ],
		  [ 106.820134,-6.545789 ],
		  [ 106.820245,-6.546122 ],
		  [ 106.82025,-6.54588 ],
		  [ 106.820633,-6.545325 ],
		  [ 106.820401,-6.545557 ],
		  [ 106.820769,-6.545206 ],
		  [ 106.819692,-6.546126 ],
		  [ 106.819785,-6.546125 ],
		  [ 106.819867,-6.546117 ],
		  [ 106.819909,-6.546112 ],
		  [ 106.820048,-6.546108 ],
		  [ 106.82018,-6.546088 ],
		  [ 106.820241,-6.546079 ],
		  [ 106.820372,-6.546047 ],
		  [ 106.820422,-6.54607 ],
		  [ 106.820496,-6.546231 ],
		  [ 106.820524,-6.546285 ],
		  [ 106.820263,-6.546076 ],
		  [ 106.819982,-6.54611 ],
		  [ 106.819953,-6.546265 ],
		  [ 106.819781,-6.546066 ],
		  [ 106.819778,-6.546008 ],
		  [ 106.819762,-6.545937 ],
		  [ 106.81976,-6.545897 ],
		  [ 106.819724,-6.545838 ],
		  [ 106.820303,-6.546065 ],
		  [ 106.820334,-6.546057 ],
		  [ 106.820445,-6.546111 ],
		  [ 106.820144,-6.545894 ],
		  [ 106.820199,-6.545886 ],
		  [ 106.820289,-6.545879 ],
		  [ 106.820313,-6.545889 ],
		  [ 106.820357,-6.545909 ],
		  [ 106.820361,-6.545945 ],
		  [ 106.820367,-6.545996 ],
		  [ 106.820369,-6.546016 ],
		  [ 106.820387,-6.545898 ],
		  [ 106.82041,-6.54589 ],
		  [ 106.820427,-6.545871 ],
		  [ 106.820447,-6.545848 ],
		  [ 106.820463,-6.545887 ],
		  [ 106.820475,-6.545907 ],
		  [ 106.820522,-6.545959 ],
		  [ 106.820534,-6.545986 ],
		  [ 106.82054,-6.546008 ],
		  [ 106.820545,-6.546025 ],
		  [ 106.820447,-6.545848 ],
		  [ 106.820447,-6.545817 ],
		  [ 106.820463,-6.545793 ],
		  [ 106.820465,-6.545769 ],
		  [ 106.820469,-6.54574 ],
		  [ 106.820444,-6.545722 ],
		  [ 106.820416,-6.545726 ],
		  [ 106.820375,-6.54573 ],
		  [ 106.820342,-6.545733 ],
		  [ 106.820299,-6.545735 ],
		  [ 106.820274,-6.54577 ],
		  [ 106.820239,-6.545778 ],
		  [ 106.820209,-6.545786 ],
		  [ 106.82016,-6.545788 ],
		  [ 106.820092,-6.545791 ],
		  [ 106.820071,-6.545792 ],
		  [ 106.820037,-6.545788 ],
		  [ 106.820003,-6.545783 ],
		  [ 106.819979,-6.54578 ],
		  [ 106.819934,-6.545774 ],
		  [ 106.819931,-6.545757 ],
		  [ 106.819921,-6.545711 ],
		  [ 106.819915,-6.545683 ],
		  [ 106.819898,-6.545634 ],
		  [ 106.819884,-6.545596 ],
		  [ 106.820373,-6.545708 ],
		  [ 106.820371,-6.545684 ],
		  [ 106.820369,-6.545658 ],
		  [ 106.820338,-6.545621 ],
		  [ 106.820311,-6.545619 ],
		  [ 106.820311,-6.545587 ],
		  [ 106.820312,-6.545554 ],
		  [ 106.820312,-6.545524 ],
		  [ 106.820312,-6.545505 ],
		  [ 106.820312,-6.545476 ],
		  [ 106.82029,-6.545476 ],
		  [ 106.820237,-6.545476 ],
		  [ 106.820194,-6.545475 ],
		  [ 106.820341,-6.545475 ],
		  [ 106.820384,-6.545475 ],
		  [ 106.82041,-6.545475 ],
		  [ 106.820377,-6.545615 ],
		  [ 106.820395,-6.545608 ],
		  [ 106.820406,-6.545586 ],
		  [ 106.820397,-6.545531 ],
		  [ 106.820407,-6.54551 ],
		  [ 106.820413,-6.545495 ],
		  [ 106.820411,-6.545446 ],
		  [ 106.820409,-6.545401 ],
		  [ 106.820415,-6.545368 ],
		  [ 106.820434,-6.545316 ],
		  [ 106.820465,-6.545314 ],
		  [ 106.820485,-6.545313 ],
		  [ 106.820516,-6.545293 ],
		  [ 106.820527,-6.545265 ],
		  [ 106.820572,-6.54526 ],
		  [ 106.820603,-6.545261 ],
		  [ 106.820631,-6.545259 ],
		  [ 106.820632,-6.545286 ],
		  [ 106.820632,-6.545298 ],
		  [ 106.820633,-6.545325 ],
		  [ 106.820665,-6.545327 ],
		  [ 106.820704,-6.54533 ],
		  [ 106.820748,-6.545333 ],
		  [ 106.820767,-6.545334 ],
		  [ 106.820768,-6.545318 ],
		  [ 106.820769,-6.545296 ],
		  [ 106.82077,-6.545249 ],
		  [ 106.820763,-6.54523 ],
		  [ 106.820778,-6.545169 ],
		  [ 106.820787,-6.545146 ],
		  [ 106.820796,-6.545123 ],
		  [ 106.82081,-6.545087 ]
        ]
      }
    }
  ]
}