{
  "type": "FeatureCollection",
  "features": [
    {
      "type": "Feature",
      "properties": {},
      "geometry": {
        "type": "LineString",
        "coordinates": [
          [ 106.80087,-6.55206 ],
		  [ 106.80101,-6.55212 ],
		  [ 106.80106,-6.55192 ],
		  [ 106.80091,-6.55249 ],
		  [ 106.80069,-6.55128 ],
		  [ 106.80096,-6.55113 ],
		  [ 106.80071,-6.55153 ],
		  [ 106.80074,-6.55165 ],
		  [ 106.80094,-6.55200 ],
		  [ 106.80091,-6.55178 ],
		  [ 106.80078,-6.55137 ],
		  [ 106.80084,-6.55090 ],
		  [ 106.80099,-6.55106 ],
		  [ 106.80093,-6.55208 ],
		  [ 106.80094,-6.55204 ],
		  [ 106.80094,-6.55198 ],
		  [ 106.80094,-6.55192 ],
		  [ 106.80091,-6.55192 ],
		  [ 106.80088,-6.55192 ],
		  [ 106.80086,-6.55192 ],
		  [ 106.80088,-6.55191 ],
		  [ 106.80088,-6.55189 ],
		  [ 106.80088,-6.55187 ],
		  [ 106.80088,-6.55185 ],
		  [ 106.80088,-6.55183 ],
		  [ 106.80089,-6.55181 ],
		  [ 106.80089,-6.55180 ],
		  [ 106.80089,-6.55179 ],
		  [ 106.80089,-6.55178 ],
		  [ 106.80090,-6.55178 ],
		  [ 106.80093,-6.55178 ],
		  [ 106.80093,-6.55178 ],
		  [ 106.80095,-6.55178 ],
		  [ 106.80094,-6.55176 ],
		  [ 106.80094,-6.55175 ],
		  [ 106.80094,-6.55173 ],
		  [ 106.80094,-6.55172 ],
		  [ 106.80093,-6.55171 ],
		  [ 106.80093,-6.55169 ],
		  [ 106.80092,-6.55168 ],
		  [ 106.80091,-6.55166 ],
		  [ 106.80089,-6.55165 ],
		  [ 106.80089,-6.55164 ],
		  [ 106.80087,-6.55163 ],
		  [ 106.80086,-6.55163 ],
		  [ 106.80084,-6.55163 ],
		  [ 106.80083,-6.55163 ],
		  [ 106.80082,-6.55163 ],
		  [ 106.80081,-6.55163 ],
		  [ 106.80078,-6.55163 ],
		  [ 106.80077,-6.55163 ],
		  [ 106.80077,-6.55164 ],
		  [ 106.80075,-6.55164 ],
		  [ 106.80072,-6.55165 ],
		  [ 106.80071,-6.55165 ],
		  [ 106.80077,-6.55162 ],
		  [ 106.80077,-6.55161 ],
		  [ 106.80077,-6.55159 ],
		  [ 106.80076,-6.55158 ],
		  [ 106.80076,-6.55156 ],
		  [ 106.80076,-6.55155 ],
		  [ 106.80076,-6.55153 ],
		  [ 106.80075,-6.55153 ],
		  [ 106.80073,-6.55153 ],
		  [ 106.80069,-6.55153 ],
		  [ 106.80068,-6.55153 ],
		  [ 106.80066,-6.55153 ],
		  [ 106.80076,-6.55152 ],
		  [ 106.80077,-6.55149 ],
		  [ 106.80077,-6.55148 ],
		  [ 106.80077,-6.55147 ],
		  [ 106.80077,-6.55146 ],
		  [ 106.80077,-6.55144 ],
		  [ 106.80077,-6.55143 ],
		  [ 106.80077,-6.55141 ],
		  [ 106.80077,-6.55139 ],
		  [ 106.80078,-6.55138 ],
		  [ 106.80078,-6.55135 ],
		  [ 106.80078,-6.55134 ],
		  [ 106.80078,-6.55132 ],
		  [ 106.80078,-6.55130 ],
		  [ 106.80077,-6.55130 ],
		  [ 106.80074,-6.55129 ],
		  [ 106.80072,-6.55129 ],
		  [ 106.80070,-6.55128 ],
		  [ 106.80067,-6.55128 ],
		  [ 106.80066,-6.55127 ],
		  [ 106.80065,-6.55127 ],
		  [ 106.80062,-6.55128 ],
		  [ 106.80061,-6.55128 ],
		  [ 106.80060,-6.55128 ],
		  [ 106.80058,-6.55128 ],
		  [ 106.80078,-6.55129 ],
		  [ 106.80079,-6.55127 ],
		  [ 106.80079,-6.55125 ],
		  [ 106.80079,-6.55123 ],
		  [ 106.80079,-6.55121 ],
		  [ 106.80079,-6.55119 ],
		  [ 106.80080,-6.55117 ],
		  [ 106.80080,-6.55115 ],
		  [ 106.80080,-6.55114 ],
		  [ 106.80080,-6.55111 ],
		  [ 106.80082,-6.55110 ],
		  [ 106.80082,-6.55109 ],
		  [ 106.80084,-6.55108 ],
		  [ 106.80083,-6.55108 ],
		  [ 106.80085,-6.55109 ],
		  [ 106.80087,-6.55109 ],
		  [ 106.80089,-6.55110 ],
		  [ 106.80090,-6.55110 ],
		  [ 106.80092,-6.55110 ],
		  [ 106.80093,-6.55110 ],
		  [ 106.80094,-6.55111 ],
		  [ 106.80094,-6.55112 ],
		  [ 106.80096,-6.55114 ],
		  [ 106.80098,-6.55116 ],
		  [ 106.80099,-6.55116 ],
		  [ 106.80100,-6.55118 ],
		  [ 106.80101,-6.55119 ],
		  [ 106.80103,-6.55120 ],
		  [ 106.80103,-6.55121 ],
		  [ 106.80103,-6.55123 ],
		  [ 106.80103,-6.55125 ],
		  [ 106.80103,-6.55126 ],
		  [ 106.80100,-6.55117 ],
		  [ 106.80100,-6.55115 ],
		  [ 106.80100,-6.55113 ],
		  [ 106.80100,-6.55112 ],
		  [ 106.80099,-6.55110 ],
		  [ 106.80099,-6.55108 ],
		  [ 106.80099,-6.55107 ],
		  [ 106.80099,-6.55105 ],
		  [ 106.80099,-6.55103 ],
		  [ 106.80099,-6.55102 ],
		  [ 106.80099,-6.55100 ],
		  [ 106.80099,-6.55099 ],
		  [ 106.80099,-6.55097 ],
		  [ 106.80099,-6.55096 ],
		  [ 106.80099,-6.55095 ],
		  [ 106.80099,-6.55095 ],
		  [ 106.80083,-6.55107 ],
		  [ 106.80084,-6.55104 ],
		  [ 106.80084,-6.55102 ],
		  [ 106.80085,-6.55099 ],
		  [ 106.80084,-6.55096 ],
		  [ 106.80084,-6.55093 ],
		  [ 106.80084,-6.55087 ],
		  [ 106.80096,-6.55192 ],
		  [ 106.80099,-6.55192 ],
		  [ 106.80101,-6.55192 ],
		  [ 106.80103,-6.55192 ],
		  [ 106.80108,-6.55192 ],
		  [ 106.80106,-6.55185 ],
		  [ 106.80101,-6.55232 ],
		  [ 106.80101,-6.55228 ],
		  [ 106.80101,-6.55223 ],
		  [ 106.80101,-6.55219 ],
		  [ 106.80101,-6.55215 ],
		  [ 106.80102,-6.55209 ],
		  [ 106.80102,-6.55205 ],
		  [ 106.80102,-6.55201 ],
		  [ 106.80102,-6.55196 ],
		  [ 106.80102,-6.55194 ],
		  [ 106.80100,-6.55208 ],
		  [ 106.80096,-6.55208 ],
		  [ 106.80089,-6.55207 ],
		  [ 106.80090,-6.55211 ],
		  [ 106.80090,-6.55215 ],
		  [ 106.80091,-6.55219 ],
		  [ 106.80091,-6.55222 ],
		  [ 106.80092,-6.55225 ],
		  [ 106.80092,-6.55230 ],
		  [ 106.80093,-6.55233 ],
		  [ 106.80093,-6.55235 ],
		  [ 106.80094,-6.55239 ],
		  [ 106.80095,-6.55241 ],
		  [ 106.80096,-6.55244 ],
		  [ 106.80096,-6.55248 ],
		  [ 106.80093,-6.55248 ],
		  [ 106.80089,-6.55249 ],
		  [ 106.80087,-6.55249 ],
		  [ 106.80074,-6.55204 ],
		  [ 106.80077,-6.55205 ],
		  [ 106.80081,-6.55205 ],
		  [ 106.80083,-6.55206 ],
		  [ 106.80085,-6.55206 ],
		  [ 106.80127,-6.55198 ],
		  [ 106.80115,-6.55186 ],
		  [ 106.80112,-6.55193 ],
		  [ 106.80115,-6.55193 ],
		  [ 106.80118,-6.55194 ],
		  [ 106.80122,-6.55195 ],
		  [ 106.80125,-6.55196 ],
		  [ 106.80125,-6.55193 ],
		  [ 106.80124,-6.55190 ],
		  [ 106.80124,-6.55190 ],
		  [ 106.80121,-6.55187 ],
		  [ 106.80118,-6.55187 ],
		  [ 106.80113,-6.55186 ],
		  [ 106.80109,-6.55185 ],
		  [ 106.80124,-6.55189 ],
		  [ 106.80123,-6.55185 ],
		  [ 106.80123,-6.55182 ],
		  [ 106.80123,-6.55179 ],
		  [ 106.80124,-6.55192 ],
		  [ 106.80129,-6.55201 ],
		  [ 106.80129,-6.55201 ],
		  [ 106.80129,-6.55206 ],
		  [ 106.80129,-6.55208 ],
		  [ 106.80129,-6.55210 ],
		  [ 106.80130,-6.55214 ],
		  [ 106.80129,-6.55216 ],
		  [ 106.80129,-6.55218 ]
        ]
      }
    }
  ]
}