{
  "geometry": {
    "coordinates": [
      [
        [
          106.82041226402902,
          -6.624944808159881
        ],
        [
          106.82081649889858,
          -6.624913107976411
        ],
        [
          106.8211356316902,
          -6.624300237362746
        ],
        [
          106.82142285120273,
          -6.623856434029179
        ],
        [
          106.8218589993512,
          -6.623507731129905
        ],
        [
          106.8211675449694,
          -6.6231695947496405
        ],
        [
          106.82034843747067,
          -6.6228842919986874
        ],
        [
          106.819688896368,
          -6.623222428574465
        ],
        [
          106.81757844988698,
          -6.623653383444534
        ],
        [
          106.81757844988698,
          -6.622543872907627
        ],
        [
          106.81607852576622,
          -6.621318125033213
        ],
        [
          106.81439652211702,
          -6.620016194257758
        ],
        [
          106.81270511832128,
          -6.6185579691488385
        ],
        [
          106.81193919962135,
          -6.617987358151353
        ],
        [
          106.81141794939487,
          -6.617385045827561
        ],
        [
          106.80994993855495,
          -6.616074749818665
        ],
        [
          106.8091946576148,
          -6.615409033577151
        ],
        [
          106.80849256547316,
          -6.614479142722175
        ],
        [
          106.80783302437237,
          -6.613591518003943
        ],
        [
          106.80676924840014,
          -6.612164974933165
        ],
        [
          106.80572674794752,
          -6.611023737512085
        ],
        [
          106.80448213006008,
          -6.610030436130714
        ],
        [
          106.80490764044902,
          -6.609565485862376
        ],
        [
          106.80604588074891,
          -6.608561614484913
        ],
        [
          106.80666287081289,
          -6.607853619753783
        ],
        [
          106.80531187532813,
          -6.60682861066104
        ],
        [
          106.8049076404588,
          -6.6063530902575
        ],
        [
          106.80409917071984,
          -6.6055182866657844
        ],
        [
          106.80349281842746,
          -6.604419302596028
        ],
        [
          106.80305667027898,
          -6.603595062926004
        ],
        [
          106.80264179764981,
          -6.60290819548581
        ],
        [
          106.80224820054002,
          -6.6023481336368235
        ],
        [
          106.8032907009927,
          -6.602009982779521
        ],
        [
          106.8044927678414,
          -6.60164013001507
        ],
        [
          106.80477998735387,
          -6.601545024973802
        ],
        [
          106.80539697741762,
          -6.6016929661411154
        ],
        [
          106.80576929900798,
          -6.602665149855625
        ],
        [
          106.80629054923423,
          -6.60370073475535
        ],
        [
          106.8069394525773,
          -6.604472138425621
        ],
        [
          106.80859381464882,
          -6.603399380840472
        ],
        [
          106.81027458068479,
          -6.602141883843302
        ],
        [
          106.8123702193501,
          -6.600747009487691
        ],
        [
          106.81379567916133,
          -6.599852315289397
        ],
        [
          106.81550835847645,
          -6.598605376573843
        ],
        [
          106.81699764483739,
          -6.597749425299554
        ],
        [
          106.81790185441383,
          -6.597379569353066
        ],
        [
          106.81817843617353,
          -6.599936853402355
        ],
        [
          106.81845501792623,
          -6.601564209098129
        ],
        [
          106.8184975689652,
          -6.602504691444281
        ],
        [
          106.82035917691633,
          -6.602504691444281
        ],
        [
          106.82034853915678,
          -6.601521940186629
        ],
        [
          106.82051874331216,
          -6.601373998968199
        ],
        [
          106.82118892217466,
          -6.601109818110871
        ],
        [
          106.82128466201215,
          -6.600422947222398
        ],
        [
          106.82143359064838,
          -6.600285572930304
        ],
        [
          106.82145486616776,
          -6.599630402705515
        ],
        [
          106.82150805496633,
          -6.599186577222014
        ],
        [
          106.82309308116493,
          -6.598055877169202
        ],
        [
          106.82453343383816,
          -6.597802261857709
        ],
        [
          106.82489511766875,
          -6.597992473359525
        ],
        [
          106.82533126581728,
          -6.598922395205946
        ],
        [
          106.82574613844645,
          -6.599471893658176
        ],
        [
          106.82624611315356,
          -6.599556431827423
        ],
        [
          106.82626738867287,
          -6.600053093280479
        ],
        [
          106.82677800113953,
          -6.600370110968882
        ],
        [
          106.8271609604895,
          -6.600792800904372
        ],
        [
          106.82711840946257,
          -6.601521940205771
        ],
        [
          106.82722478705983,
          -6.602177107927801
        ],
        [
          106.82685246546964,
          -6.602346183327981
        ],
        [
          106.82686310322919,
          -6.602673766751977
        ],
        [
          106.82729925137795,
          -6.6029062451794545
        ],
        [
          106.82740562897499,
          -6.6030647531354845
        ],
        [
          106.82801198127919,
          -6.603265529806805
        ],
        [
          106.82801198127919,
          -6.60357197825374
        ],
        [
          106.82754391985151,
          -6.603730485996579
        ],
        [
          106.82765029744877,
          -6.603931262397822
        ],
        [
          106.8281502721556,
          -6.604015799805794
        ],
        [
          106.82820346095411,
          -6.604396217962218
        ],
        [
          106.82794815472084,
          -6.605072516184691
        ],
        [
          106.82819282319736,
          -6.605167620554937
        ],
        [
          106.82802261904169,
          -6.605505769254819
        ],
        [
          106.82841621615148,
          -6.605801649177295
        ],
        [
          106.82857578254732,
          -6.605632574957582
        ],
        [
          106.82892682861808,
          -6.6055903063935375
        ],
        [
          106.82921404813061,
          -6.605907320535437
        ],
        [
          106.83018208426512,
          -6.606287737237594
        ],
        [
          106.83036292618056,
          -6.60648851260143
        ],
        [
          106.83090545192636,
          -6.607027435543316
        ],
        [
          106.83160754407226,
          -6.607492388202047
        ],
        [
          106.83158626855288,
          -6.607788266936552
        ],
        [
          106.83158626855288,
          -6.608316621379174
        ],
        [
          106.8316713706306,
          -6.609140853182637
        ],
        [
          106.83174583494872,
          -6.6104934357292535
        ],
        [
          106.83180966151303,
          -6.61202565367951
        ],
        [
          106.83227772294072,
          -6.614308121259597
        ],
        [
          106.83290535077276,
          -6.616379240134094
        ],
        [
          106.83362871843372,
          -6.618260146681365
        ],
        [
          106.83482048038354,
          -6.621009509211021
        ],
        [
          106.83510769989596,
          -6.62182315304517
        ],
        [
          106.83618211362779,
          -6.624644479065822
        ],
        [
          106.83727780288615,
          -6.627184187031872
        ],
        [
          106.8380330838263,
          -6.629286951769529
        ],
        [
          106.83870326268874,
          -6.630787411576193
        ],
        [
          106.83941782738606,
          -6.631876138917178
        ],
        [
          106.84015183280684,
          -6.633122993653785
        ],
        [
          106.84113050670118,
          -6.63465514133938
        ],
        [
          106.84266234410978,
          -6.636747307730644
        ],
        [
          106.84401333959448,
          -6.638522472237483
        ],
        [
          106.84533242180754,
          -6.640276497556812
        ],
        [
          106.8460770649881,
          -6.6413965345441
        ],
        [
          106.84702382560329,
          -6.642611666128261
        ],
        [
          106.8477471932643,
          -6.644355110550066
        ],
        [
          106.84820461693931,
          -6.645781560487151
        ],
        [
          106.84844928541276,
          -6.647292536270925
        ],
        [
          106.84854502525025,
          -6.648951434405987
        ],
        [
          106.84849183645167,
          -6.650278548885936
        ],
        [
          106.84851311197104,
          -6.651546489305801
        ],
        [
          106.84793867294604,
          -6.652761595804478
        ],
        [
          106.84761954016142,
          -6.654084406971293
        ],
        [
          106.84708765217545,
          -6.6559863016380945
        ],
        [
          106.84607706500174,
          -6.655130449949567
        ],
        [
          106.84544943717822,
          -6.654137237478082
        ],
        [
          106.84473670727675,
          -6.6527953408428
        ],
        [
          106.84434311016724,
          -6.652140240366137
        ],
        [
          106.84365165578515,
          -6.651252683488352
        ],
        [
          106.84315052376155,
          -6.6505213186459
        ],
        [
          106.84246970713929,
          -6.6499718770526215
        ],
        [
          106.8422782274643,
          -6.649189978341738
        ],
        [
          106.84163996188096,
          -6.648027694175468
        ],
        [
          106.84048044607124,
          -6.6476156109474545
        ],
        [
          106.83934220578294,
          -6.647224659877807
        ],
        [
          106.83859756260233,
          -6.646189166341529
        ],
        [
          106.8381614144538,
          -6.64578764785314
        ],
        [
          106.83901243523144,
          -6.645058573970161
        ],
        [
          106.83982090497034,
          -6.644561957807923
        ],
        [
          106.83871457795942,
          -6.643505326006903
        ],
        [
          106.83742740904609,
          -6.64241699289461
        ],
        [
          106.83640618411283,
          -6.641539984836228
        ],
        [
          106.83507646414773,
          -6.640377682590994
        ],
        [
          106.83331059603381,
          -6.639204811179397
        ],
        [
          106.8316191922546,
          -6.638158734338049
        ],
        [
          106.83067243163919,
          -6.637482481447563
        ],
        [
          106.82957674238799,
          -6.636700562885281
        ],
        [
          106.82813000706574,
          -6.635834111136234
        ],
        [
          106.82751301700182,
          -6.635390318186651
        ],
        [
          106.82671518502997,
          -6.634714061502905
        ],
        [
          106.82591735305084,
          -6.633699674723985
        ],
        [
          106.8253110007467,
          -6.632590186792953
        ],
        [
          106.82491740363719,
          -6.631618061980831
        ],
        [
          106.82452380652711,
          -6.630698768279814
        ],
        [
          106.8241302094176,
          -6.629716073111879
        ],
        [
          106.82357704591197,
          -6.6287122426920035
        ],
        [
          106.8229919691272,
          -6.627866910226544
        ],
        [
          106.82250263218015,
          -6.627254043283173
        ],
        [
          106.8219388309148,
          -6.626588342119447
        ],
        [
          106.8211835499821,
          -6.625721872599229
        ],
        [
          106.82041226402902,
          -6.624944808159881
        ]
      ]
    ],
    "type": "Polygon"
  },
  "type": "Feature",
  "properties": {}
}