{
  "geometry": {
    "coordinates": [
      [
        [
          106.79829996350367,
          -6.582303628235707
        ],
        [
          106.79789570055408,
          -6.58125399563329
        ],
        [
          106.79811620761762,
          -6.580998432576976
        ],
        [
          106.79858478512767,
          -6.580551196911713
        ],
        [
          106.79953112794186,
          -6.579738869877659
        ],
        [
          106.80015589795534,
          -6.579501560605593
        ],
        [
          106.80082660694012,
          -6.579364651358645
        ],
        [
          106.80100117503196,
          -6.578944796099634
        ],
        [
          106.8009827994374,
          -6.578132493222995
        ],
        [
          106.80116655532385,
          -6.577813037374341
        ],
        [
          106.80199345681211,
          -6.5765169572536735
        ],
        [
          106.80215883710974,
          -6.575859788576992
        ],
        [
          106.8029030484472,
          -6.575430803002121
        ],
        [
          106.80310517992234,
          -6.575403420931451
        ],
        [
          106.80379426449588,
          -6.5753577841436766
        ],
        [
          106.80427202980007,
          -6.574892288668522
        ],
        [
          106.80458441480664,
          -6.574180353569275
        ],
        [
          106.80579720365398,
          -6.572765607722431
        ],
        [
          106.80711105824105,
          -6.571314348118577
        ],
        [
          106.80759801133985,
          -6.570620662786908
        ],
        [
          106.80767151369406,
          -6.570136907970053
        ],
        [
          106.80724783617444,
          -6.569635239789335
        ],
        [
          106.80713758264267,
          -6.569288396073745
        ],
        [
          106.8075877845639,
          -6.568165716073153
        ],
        [
          106.80801961089685,
          -6.5672438387315
        ],
        [
          106.8080422972979,
          -6.566686606573214
        ],
        [
          106.80802392170915,
          -6.566120700191092
        ],
        [
          106.8080331095033,
          -6.565427007619121
        ],
        [
          106.80794123156033,
          -6.564924992654866
        ],
        [
          106.80767478552502,
          -6.564359084270237
        ],
        [
          106.80749102963904,
          -6.563647134098403
        ],
        [
          106.8075369686079,
          -6.563129144072207
        ],
        [
          106.80772072449435,
          -6.562718402698195
        ],
        [
          106.80806986067836,
          -6.5624263197373125
        ],
        [
          106.80862112833722,
          -6.562006450180817
        ],
        [
          106.80898864010965,
          -6.561376645182563
        ],
        [
          106.80954007163643,
          -6.560655563121998
        ],
        [
          106.80978814208288,
          -6.560016628776481
        ],
        [
          106.80977895428873,
          -6.559523736007293
        ],
        [
          106.80961357399104,
          -6.559213395865612
        ],
        [
          106.80939306692756,
          -6.558857417229618
        ],
        [
          106.80913580868645,
          -6.558501438339334
        ],
        [
          106.80889692603455,
          -6.558145459194748
        ],
        [
          106.80882342367994,
          -6.557689075303955
        ],
        [
          106.80872235793782,
          -6.557221424003757
        ],
        [
          106.80857535322895,
          -6.556774166965781
        ],
        [
          106.80822621704488,
          -6.556308654112399
        ],
        [
          106.80780357850654,
          -6.555843140824351
        ],
        [
          106.80730743761359,
          -6.555687969631762
        ],
        [
          106.80651728730243,
          -6.555441521167793
        ],
        [
          106.80603033420368,
          -6.5551768171261955
        ],
        [
          106.80592008067185,
          -6.554912112944251
        ],
        [
          106.80582820272889,
          -6.554537875757575
        ],
        [
          106.80568119801632,
          -6.554026722076642
        ],
        [
          106.80562607125046,
          -6.5536981230028175
        ],
        [
          106.8056352590446,
          -6.553387779234441
        ],
        [
          106.80569038581052,
          -6.553031796438631
        ],
        [
          106.80572713698803,
          -6.552666685614881
        ],
        [
          106.80569038581052,
          -6.552356341204529
        ],
        [
          106.8056076956617,
          -6.55202774103023
        ],
        [
          106.80546987874698,
          -6.551836057495279
        ],
        [
          106.80527693506639,
          -6.551635246094079
        ],
        [
          106.80430302886595,
          -6.551507456982364
        ],
        [
          106.80375176120708,
          -6.551306645448676
        ],
        [
          106.8033658738459,
          -6.550877638719783
        ],
        [
          106.80294323530757,
          -6.55057642100887
        ],
        [
          106.80178557322404,
          -6.550028751977621
        ],
        [
          106.80174882204648,
          -6.54943544318202
        ],
        [
          106.80168450748647,
          -6.548942539953956
        ],
        [
          106.80157425395464,
          -6.548303590600597
        ],
        [
          106.80150075159509,
          -6.547965859900842
        ],
        [
          106.80116080320562,
          -6.5474546994833815
        ],
        [
          106.801059737468,
          -6.54703481732021
        ],
        [
          106.80109648864556,
          -6.546423249189971
        ],
        [
          106.80111486423391,
          -6.546204179826759
        ],
        [
          106.80144562482917,
          -6.545355285136566
        ],
        [
          106.80201526807679,
          -6.5448076103770205
        ],
        [
          106.80226333851306,
          -6.5442142953830285
        ],
        [
          106.80237359204477,
          -6.543630107616821
        ],
        [
          106.80237359204477,
          -6.543292373752749
        ],
        [
          106.80224496292465,
          -6.543073303016186
        ],
        [
          106.80162938070532,
          -6.542991151465202
        ],
        [
          106.80108730084112,
          -6.5429546396605645
        ],
        [
          106.8007565402458,
          -6.542699056952344
        ],
        [
          106.80033390170706,
          -6.54258039350762
        ],
        [
          106.80037984067877,
          -6.541859284276484
        ],
        [
          106.80063992631688,
          -6.540270664204755
        ],
        [
          106.80118200618153,
          -6.539768623921759
        ],
        [
          106.80186190296052,
          -6.539220943037947
        ],
        [
          106.80284499695227,
          -6.538664133524293
        ],
        [
          106.80307469180997,
          -6.538253372010075
        ],
        [
          106.80328601107936,
          -6.539093150745401
        ],
        [
          106.80351570593706,
          -6.5393213512450075
        ],
        [
          106.80356164490877,
          -6.539759495912051
        ],
        [
          106.8041772271277,
          -6.540133744177581
        ],
        [
          106.80437935860289,
          -6.540763575991903
        ],
        [
          106.80453555110591,
          -6.540790959965804
        ],
        [
          106.80463661684348,
          -6.541128695520825
        ],
        [
          106.80534407700583,
          -6.541064799622447
        ],
        [
          106.80595965922475,
          -6.541110439550565
        ],
        [
          106.80586778127969,
          -6.541874147066579
        ],
        [
          106.8059412836339,
          -6.5426408960647535
        ],
        [
          106.80586778127969,
          -6.54391880844652
        ],
        [
          106.80584021789224,
          -6.545241180471564
        ],
        [
          106.80660280482005,
          -6.545679319946885
        ],
        [
          106.8076318377835,
          -6.5463912957742565
        ],
        [
          106.80808203969735,
          -6.545953156925307
        ],
        [
          106.80794422278262,
          -6.545624552535131
        ],
        [
          106.80867005853332,
          -6.545633680437817
        ],
        [
          106.8087803120651,
          -6.54531420374596
        ],
        [
          106.8090191947174,
          -6.5453050758373905
        ],
        [
          106.80941426987272,
          -6.545834494253967
        ],
        [
          106.80975421826264,
          -6.546500830428386
        ],
        [
          106.80984609620566,
          -6.5445383309287735
        ],
        [
          106.8107740634315,
          -6.543360827527152
        ],
        [
          106.81086594136377,
          -6.542411520445711
        ],
        [
          106.81110482401607,
          -6.542073785757978
        ],
        [
          106.81101294607265,
          -6.541708666919689
        ],
        [
          106.81122426534205,
          -6.54149872346693
        ],
        [
          106.81113238739903,
          -6.541206628081341
        ],
        [
          106.81138045784553,
          -6.54019342088975
        ],
        [
          106.81170203063681,
          -6.5393954807528445
        ],
        [
          106.81143558460155,
          -6.538838671433481
        ],
        [
          106.81254730771343,
          -6.538729135100908
        ],
        [
          106.81376928435748,
          -6.538939079717153
        ],
        [
          106.81431136422174,
          -6.539012103910977
        ],
        [
          106.81437567877356,
          -6.538528318433578
        ],
        [
          106.81539552394241,
          -6.53861047071824
        ],
        [
          106.81638780572837,
          -6.538665238900506
        ],
        [
          106.8168288198554,
          -6.53861047071824
        ],
        [
          106.81742602648598,
          -6.538747391162659
        ],
        [
          106.81786704061301,
          -6.539066872053979
        ],
        [
          106.81838155709028,
          -6.538528318435169
        ],
        [
          106.81885932239447,
          -6.538044532485031
        ],
        [
          106.81862962753672,
          -6.5397423452674275
        ],
        [
          106.81840912046704,
          -6.540865089268124
        ],
        [
          106.81806917207757,
          -6.541713991589319
        ],
        [
          106.81830805472987,
          -6.542572020426931
        ],
        [
          106.81930952430997,
          -6.54260853225972
        ],
        [
          106.82043043521645,
          -6.54260853225972
        ],
        [
          106.82056825213112,
          -6.542270797705015
        ],
        [
          106.82153297051684,
          -6.5417778874100065
        ],
        [
          106.82224961847334,
          -6.541768759436806
        ],
        [
          106.823067332167,
          -6.542425973074515
        ],
        [
          106.82292032745812,
          -6.543101441745819
        ],
        [
          106.82322352467054,
          -6.543603478679842
        ],
        [
          106.82350834629409,
          -6.54337528013609
        ],
        [
          106.82350834629409,
          -6.54270893979124
        ],
        [
          106.82405042615875,
          -6.542562892473569
        ],
        [
          106.82463844499472,
          -6.543302256579906
        ],
        [
          106.82461088161176,
          -6.544571039347844
        ],
        [
          106.82449144028578,
          -6.54482662109821
        ],
        [
          106.82415149189632,
          -6.545009179411096
        ],
        [
          106.8233062148193,
          -6.545209993478323
        ],
        [
          106.8235818486487,
          -6.545785051496722
        ],
        [
          106.82351753406397,
          -6.546789119474056
        ],
        [
          106.82392179701355,
          -6.5472181297174075
        ],
        [
          106.8248957032111,
          -6.5461866789354275
        ],
        [
          106.825419407487,
          -6.545283016764628
        ],
        [
          106.82549290984127,
          -6.54633272519321
        ],
        [
          106.82592473616518,
          -6.547774929702271
        ],
        [
          106.82657706956155,
          -6.548276961937773
        ],
        [
          106.82841462842413,
          -6.549819566919652
        ],
        [
          106.82888320593412,
          -6.549956484291201
        ],
        [
          106.82920477873529,
          -6.550212063284349
        ],
        [
          106.82977719537854,
          -6.552784312514547
        ],
        [
          106.83023658508233,
          -6.554737651859298
        ],
        [
          106.82990582448701,
          -6.555367465247613
        ],
        [
          106.82996095125293,
          -6.555659552346228
        ],
        [
          106.8297955709553,
          -6.5565358126148965
        ],
        [
          106.83040196538002,
          -6.557466837462684
        ],
        [
          106.83052140670594,
          -6.5578136894122565
        ],
        [
          106.83040196538002,
          -6.5584526265824366
        ],
        [
          106.83021820949358,
          -6.558909009773771
        ],
        [
          106.8302733362558,
          -6.559858285475187
        ],
        [
          106.8300436413981,
          -6.560652389718925
        ],
        [
          106.83046627993639,
          -6.561327833711616
        ],
        [
          106.83070516258869,
          -6.561528641208568
        ],
        [
          106.83169744437464,
          -6.562751739668698
        ],
        [
          106.83180769790641,
          -6.562970801762333
        ],
        [
          106.83216602188463,
          -6.56318986375959
        ],
        [
          106.83202582293944,
          -6.563965707560925
        ],
        [
          106.83208094970536,
          -6.5641300037396775
        ],
        [
          106.83261384177587,
          -6.564248662057338
        ],
        [
          106.83277003427895,
          -6.5643216825463355
        ],
        [
          106.83276084648475,
          -6.565334840727147
        ],
        [
          106.83390013297958,
          -6.566119808710795
        ],
        [
          106.83428602034076,
          -6.5666035674332335
        ],
        [
          106.83484503018957,
          -6.567563816180879
        ],
        [
          106.8349920348985,
          -6.568759517377458
        ],
        [
          106.83503797387016,
          -6.569891323496691
        ],
        [
          106.83513903960778,
          -6.571032254478283
        ],
        [
          106.83539850246189,
          -6.571501766966918
        ],
        [
          106.83535256349018,
          -6.572149813987281
        ],
        [
          106.83566494849674,
          -6.573007790433564
        ],
        [
          106.83576601423437,
          -6.573701472435516
        ],
        [
          106.83583951658898,
          -6.5741578416457
        ],
        [
          106.83587626776608,
          -6.5745959556934395
        ],
        [
          106.83594977012075,
          -6.575125342986027
        ],
        [
          106.8361243382027,
          -6.5753991637820945
        ],
        [
          106.83626215511742,
          -6.575837276735783
        ],
        [
          106.83651941335808,
          -6.576138479167398
        ],
        [
          106.83670316924446,
          -6.576676992150837
        ],
        [
          106.83711661998859,
          -6.577553215419115
        ],
        [
          106.83751169514397,
          -6.578739765298707
        ],
        [
          106.83808276145754,
          -6.579839280692269
        ],
        [
          106.83765093512505,
          -6.580980188840186
        ],
        [
          106.83727423555803,
          -6.582184984998946
        ],
        [
          106.83676890686604,
          -6.583544940791597
        ],
        [
          106.83633708053355,
          -6.584740603541363
        ],
        [
          106.83596038096653,
          -6.585945390574338
        ],
        [
          106.83518210055956,
          -6.588224001608296
        ],
        [
          106.83471352304952,
          -6.589611322135966
        ],
        [
          106.83445626480892,
          -6.5904418871739665
        ],
        [
          106.8341192030145,
          -6.591536095270371
        ],
        [
          106.83373331565326,
          -6.5926039602043005
        ],
        [
          106.8333933672638,
          -6.593671822838033
        ],
        [
          106.83300747990256,
          -6.594703175163502
        ],
        [
          106.83259106108477,
          -6.59608626462186
        ],
        [
          106.8322511126953,
          -6.59693507273353
        ],
        [
          106.83200304224874,
          -6.597920783554272
        ],
        [
          106.8315252769417,
          -6.60015044941396
        ],
        [
          106.83136908443862,
          -6.602432169625104
        ],
        [
          106.83142421119874,
          -6.603226205797625
        ],
        [
          106.8314517745817,
          -6.604357933304755
        ],
        [
          106.83154365252511,
          -6.605617433455237
        ],
        [
          106.83154365252511,
          -6.606247182328161
        ],
        [
          106.83160796708148,
          -6.607491320567419
        ],
        [
          106.83090050691914,
          -6.607016728481838
        ],
        [
          106.83038599043743,
          -6.606478248448894
        ],
        [
          106.83016548337389,
          -6.606277459133921
        ],
        [
          106.8292191405597,
          -6.605894133851919
        ],
        [
          106.8289435067303,
          -6.605592949493399
        ],
        [
          106.82857599495782,
          -6.605620329897192
        ],
        [
          106.82840142686558,
          -6.605793739086181
        ],
        [
          106.8280155395044,
          -6.605519935075932
        ],
        [
          106.82819010759664,
          -6.605163989636068
        ],
        [
          106.82795122494434,
          -6.605072721533233
        ],
        [
          106.8282046283316,
          -6.60440069412752
        ],
        [
          106.82816064280672,
          -6.604019935169134
        ],
        [
          106.82765795109265,
          -6.603932547825778
        ],
        [
          106.82753227816409,
          -6.603739047225162
        ],
        [
          106.82800983529256,
          -6.603564272423796
        ],
        [
          106.82800983529256,
          -6.603252174411239
        ],
        [
          106.82738775429647,
          -6.603064915509123
        ],
        [
          106.8272934996001,
          -6.602902624403271
        ],
        [
          106.82686621164311,
          -6.60269039749241
        ],
        [
          106.8268599279968,
          -6.602340847087689
        ],
        [
          106.82721809584302,
          -6.602184797720312
        ],
        [
          106.82712384113597,
          -6.601516905864358
        ],
        [
          106.82716154301454,
          -6.600799077171828
        ],
        [
          106.82677824058243,
          -6.60036837945691
        ],
        [
          106.82625041428275,
          -6.600062521431909
        ],
        [
          106.82621899605078,
          -6.599556918976276
        ],
        [
          106.82572258798302,
          -6.599457046825265
        ],
        [
          106.82531390876835,
          -6.598913510480571
        ],
        [
          106.8248803371651,
          -6.597977207057369
        ],
        [
          106.82452216931887,
          -6.597789946160361
        ],
        [
          106.82308949793003,
          -6.598064595446274
        ],
        [
          106.82151230266874,
          -6.5991881591372845
        ],
        [
          106.82144946620457,
          -6.599618857878767
        ],
        [
          106.82141804797237,
          -6.600286752287772
        ],
        [
          106.82128609139744,
          -6.600411592264095
        ],
        [
          106.8211855530547,
          -6.601104453561646
        ],
        [
          106.82051948652787,
          -6.601366617033804
        ],
        [
          106.82035611172103,
          -6.601510182691058
        ],
        [
          106.82035611172103,
          -6.602496415210339
        ],
        [
          106.82007334763193,
          -6.603857163182212
        ],
        [
          106.81936329557459,
          -6.603882130993966
        ],
        [
          106.81878520010338,
          -6.60388837294839
        ],
        [
          106.818483585075,
          -6.602502657176359
        ],
        [
          106.81843959954182,
          -6.601577381536231
        ],
        [
          106.81816940274535,
          -6.599941979199926
        ],
        [
          106.81788895033924,
          -6.597383753105376
        ],
        [
          106.81699038890036,
          -6.597752033104314
        ],
        [
          106.8155074483443,
          -6.598607190689691
        ],
        [
          106.81562683762627,
          -6.598207701198376
        ],
        [
          106.81586561619054,
          -6.597720822945433
        ],
        [
          106.8157839287868,
          -6.596478657029863
        ],
        [
          106.81604784193667,
          -6.596160312499848
        ],
        [
          106.815859332537,
          -6.595479928398376
        ],
        [
          106.8161106783939,
          -6.594868206122726
        ],
        [
          106.81623635132246,
          -6.594131641564502
        ],
        [
          106.81541947728601,
          -6.593093400657878
        ],
        [
          106.81569595772851,
          -6.592344349263087
        ],
        [
          106.81574622690005,
          -6.591701412579766
        ],
        [
          106.8156331212644,
          -6.591433001873227
        ],
        [
          106.81519954965881,
          -6.591682686253051
        ],
        [
          106.81481624722699,
          -6.5918699494577595
        ],
        [
          106.8141376134131,
          -6.591851223140466
        ],
        [
          106.81342127772069,
          -6.591826254716125
        ],
        [
          106.81284481133531,
          -6.591832496818554
        ],
        [
          106.81136815442557,
          -6.5917388652179625
        ],
        [
          106.81028108359396,
          -6.591695170465073
        ],
        [
          106.80902435430221,
          -6.591745107325124
        ],
        [
          106.80889239772728,
          -6.590765095523722
        ],
        [
          106.8091123253522,
          -6.589947377187883
        ],
        [
          106.8102747999381,
          -6.589160868200594
        ],
        [
          106.81062040049164,
          -6.588817550395632
        ],
        [
          106.81099741927716,
          -6.588630286038324
        ],
        [
          106.81149382734458,
          -6.587737658297158
        ],
        [
          106.81160693298023,
          -6.587094715642067
        ],
        [
          106.81186680588127,
          -6.586181130003098
        ],
        [
          106.81160289273146,
          -6.585581880626734
        ],
        [
          106.81106249913881,
          -6.585450794729198
        ],
        [
          106.81050953825354,
          -6.585425825982966
        ],
        [
          106.8100005628931,
          -6.585444552542796
        ],
        [
          106.80885645666814,
          -6.585463279101646
        ],
        [
          106.80820924108644,
          -6.585369646298858
        ],
        [
          106.80814640462233,
          -6.585082505593576
        ],
        [
          106.80688967533729,
          -6.584795364721856
        ],
        [
          106.8063367144477,
          -6.584751669352954
        ],
        [
          106.80572720074451,
          -6.584583130053531
        ],
        [
          106.80487890847718,
          -6.584345926498358
        ],
        [
          106.80413115455258,
          -6.584152418250639
        ],
        [
          106.80318232393347,
          -6.583952667715664
        ],
        [
          106.80217065685929,
          -6.5837778859373515
        ],
        [
          106.80127209542042,
          -6.584545676861154
        ],
        [
          106.80053690878873,
          -6.584558161256723
        ],
        [
          106.79911597137101,
          -6.584530847315506
        ],
        [
          106.79790322761113,
          -6.5845620583042574
        ],
        [
          106.79777755468251,
          -6.5841625574972795
        ],
        [
          106.7982551118107,
          -6.582839208777344
        ],
        [
          106.79829996350367,
          -6.582303628235707
        ]
      ]
    ],
    "type": "Polygon"
  },
  "type": "Feature",
  "properties": {}
}